{
  "log" : {
    "version" : "1.2",
    "pages" : [ ],
    "entries" : [ {
      "startedDateTime" : "2019-07-23T03:34:23.940Z",
      "request" : {
        "method" : "SOAP",
        "url" : "http://webissec/EZBIZ/services/InfoService?wsdl",
        "httpVersion" : "",
        "cookies" : [ ],
        "headers" : [ ],
        "queryString" : [ {
          "name" : "wsdl",
          "value" : ""
        } ],
        "postData" : {
          "mimeType" : "application/octet-stream",
          "text" : "<soapenv:Envelope xmlns:xsi=\"http://www.w3.org/2001/XMLSchema-instance\" xmlns:xsd=\"http://www.w3.org/2001/XMLSchema\" xmlns:soapenv=\"http://schemas.xmlsoap.org/soap/envelope/\" xmlns:ser=\"http://servlet.web.webis.ssm.com\">\n   <soapenv:Header/>\n   <soapenv:Body>\n      <ser:getInfoParam soapenv:encodingStyle=\"http://schemas.xmlsoap.org/soap/encoding/\">\n         <supplyParamReq xsi:type=\"urn:SupplyParamReq\" xmlns:urn=\"urn:SsmWebIs\">\n            <agencyId xsi:type=\"soapenc:string\" xmlns:soapenc=\"http://schemas.xmlsoap.org/soap/encoding/\">?</agencyId>\n            <code xsi:type=\"soapenc:string\" xmlns:soapenc=\"http://schemas.xmlsoap.org/soap/encoding/\">A</code>\n            <paramType xsi:type=\"soapenc:string\" xmlns:soapenc=\"http://schemas.xmlsoap.org/soap/encoding/\">ROBRejectReason</paramType>\n            <tableId xsi:type=\"soapenc:string\" xmlns:soapenc=\"http://schemas.xmlsoap.org/soap/encoding/\">ROsCINFO</tableId>\n         </supplyParamReq>\n      </ser:getInfoParam>\n   </soapenv:Body>\n</soapenv:Envelope>\n",
          "comment" : ""
        },
        "headersSize" : 0,
        "bodySize" : 0,
        "comment" : ""
      },
      "response" : {
        "status" : 200,
        "statusText" : "",
        "httpVersion" : "",
        "cookies" : [ ],
        "headers" : [ ],
        "content" : {
          "size" : 1174,
          "mimeType" : "application/xml",
          "text" : "<?xml version=\"1.0\" encoding=\"utf-8\"?><soapenv:Envelope xmlns:soapenv=\"http://schemas.xmlsoap.org/soap/envelope/\" xmlns:xsd=\"http://www.w3.org/2001/XMLSchema\" xmlns:xsi=\"http://www.w3.org/2001/XMLSchema-instance\"><soapenv:Header><X-OPNET-Transaction-Trace:X-OPNET-Transaction-Trace soapenv:actor=\"http://schemas.xmlsoap.org/soap/actor/next\" soapenv:mustUnderstand=\"0\" xsi:type=\"soapenc:string\" xmlns:X-OPNET-Transaction-Trace=\"http://opnet.com\" xmlns:soapenc=\"http://schemas.xmlsoap.org/soap/encoding/\">pid=2656,requestid=023ddbbf-fe60-4a72-af37-20a5a456cf6d</X-OPNET-Transaction-Trace:X-OPNET-Transaction-Trace></soapenv:Header><soapenv:Body><ns1:getInfoParamResponse soapenv:encodingStyle=\"http://schemas.xmlsoap.org/soap/encoding/\" xmlns:ns1=\"http://servlet.web.webis.ssm.com\"><getInfoParamReturn xsi:type=\"ns2:SupplyParamResp\" xmlns:ns2=\"urn:SsmWebIs\"><errorMsg xsi:type=\"soapenc:string\" xmlns:soapenc=\"http://schemas.xmlsoap.org/soap/encoding/\">Undefined Table Id</errorMsg><successCode xsi:type=\"soapenc:string\" xmlns:soapenc=\"http://schemas.xmlsoap.org/soap/encoding/\">11</successCode></getInfoParamReturn></ns1:getInfoParamResponse></soapenv:Body></soapenv:Envelope>",
          "comment" : ""
        },
        "redirectURL" : "",
        "headersSize" : 314,
        "bodySize" : 1174,
        "comment" : ""
      },
      "cache" : { },
      "timings" : {
        "comment" : "",
        "connect" : 123,
        "ssl" : -1,
        "dns" : -1,
        "blocked" : -1,
        "send" : 0,
        "wait" : 0,
        "receive" : 0
      },
      "comment" : "",
      "_katalonRequestInformation" : {
        "name" : "1",
        "testObjectId" : "Object Repository/WEBIS/SOAP/getInfoParam",
        "harId" : "a0858747-6767-4e98-955c-a05cc165231e"
      },
      "time" : 123
    } ],
    "comment" : ""
  }
}